Capítulo 7 Otros Clasificadores | Notas Curso de Estadística II
…
Como vamos a usar el método KNN, lo conveniente es estandarizar todas las covariables:

Caravan.recipe <- recipe(Purchase ~ ., data = Caravan.training) %>%
    step_normalize(all_predictors(), -all_outcomes())

y aplicamos la receta sobre el conjunto de prueba para verificar que la receta funciona bien:

Caravan.recipe %>%
    prep() %>%
    bake(new_data = Caravan.testing)

## # A tibble: 1,165 x 86
##    MOSTYPE MAANTHUI MGEMOMV MGEMLEEF MOSHOOFD MGODRK MGODPR  MGODOV MGODGE
##      <dbl>    <dbl>   <dbl>    <dbl>    <dbl>  <dbl>  <dbl>   <dbl>  <dbl>
##  1  -0.101   -0.275  -0.856  -2.45     -0.274 -0.695  0.225 -1.05    1.08 
##  2   0.680   -0.275  -0.856   0.0258    0.779 -0.695  1.39  -1.05   -0.792
##  3  -1.19    -0.275   0.401   0.0258   -0.977  0.288 -0.936  0.917   0.457
##  4   0.680    2.27    0.401   0.0258    0.779 -0.695 -0.356  0.917  -0.168
##  5  -0.881    2.27    1.66    0.0258   -0.977 -0.695 -0.356  0.917   0.457
##  6   1.23    -0.275   0.401   0.0258    1.48  -0.695 -0.936 -1.05    1.71 
##  7   0.680   -0.275   1.66    0.0258    0.779  0.288 -0.356 -0.0652  1.08 
##  8  -1.35    -0.275   0.401  -1.21     -1.33  -0.695  1.39   0.917  -2.04 
##  9  -1.66    -0.275   0.401   0.0258   -1.68   1.27   1.39  -1.05   -2.04 
## 10   1.07    -0.275   0.401   0.0258    1.13  -0.695  0.225 -0.0652 -0.168
## # ... with 1,155 more rows, and 77 more variables: MRELGE <dbl>, MRELSA <dbl>,
## #   MRELOV <dbl>, MFALLEEN <dbl>, MFGEKIND <dbl>, MFWEKIND <dbl>,
## #   MOPLHOOG <dbl>, MOPLMIDD <dbl>, MOPLLAAG <dbl>, MBERHOOG <dbl>,
## #   MBERZELF <dbl>, MBERBOER <dbl>, MBERMIDD <dbl>, MBERARBG <dbl>,
## #   MBERARBO <dbl>, MSKA <dbl>, MSKB1 <dbl>, MSKB2 <dbl>, MSKC <dbl>,
## #   MSKD <dbl>, MHHUUR <dbl>, MHKOOP <dbl>, MAUT1 <dbl>, MAUT2 <dbl>,
## #   MAUT0 <dbl>, MZFONDS <dbl>, MZPART <dbl>, MINKM30 <dbl>, ...
…
